Relasional Data Pada Program R
…
faa : FAA airport code

name : Usual name of the aiport

lat,lon : Location of airport

alt : Altitude, in feet

tz : Timezone offset from GMT

dst : Daylight savings time zone. A = Standard US DST: starts on the second Sunday of March, ends on the first Sunday of November. U = unknown. N = no dst.

tzone : IANA time zone, as determined by GeoNames webservice

## # A tibble: 1,458 x 8
##    faa   name                    lat    lon   alt    tz dst   tzone        
##    <chr> <chr>                 <dbl>  <dbl> <int> <dbl> <chr> <chr>        
##  1 04G   Lansdowne Airport      41.1  -80.6  1044    -5 A     America/New_
##  2 06A   Moton Field Municipa  32.5  -85.7   264    -6 A     America/Chic
##  3 06C   Schaumburg Regional    42.0  -88.1   801    -6 A     America/Chic
##  4 06N   Randall Airport        41.4  -74.4   523    -5 A     America/New_
##  5 09J   Jekyll Island Airport  31.1  -81.4    11    -5 A     America/New_
##  6 0A9   Elizabethton Municip  36.4  -82.2  1593    -5 A     America/New_
##  7 0G6   Williams County Airp  41.5  -84.5   730    -5 A     America/New_
##  8 0G7   Finger Lakes Regiona  42.9  -76.8   492    -5 A     America/New_
##  9 0P2   Shoestring Aviation   39.8  -76.6  1000    -5 U     America/New_
## 10 0S9   Jefferson County Intl  48.1 -123.    108    -8 A     America/Los_
## #  with 1,448 more rows
…
tailnum : Tail number

year : Year manufactured

type : Type of plane

manufacturer,model : Manufacturer and model

engines,seats : Number of engines and seats

speed : Average cruising speed in mph

engine : Type of engine

## # A tibble: 3,322 x 9
##    tailnum  year type       manufacturer  model  engines seats speed engine
##    <chr>   <int> <chr>      <chr>         <chr>    <int> <int> <int> <chr> 
##  1 N10156   2004 Fixed win EMBRAER       EMB-1       2    55    NA Turbo
##  2 N102UW   1998 Fixed win AIRBUS INDUS A320-       2   182    NA Turbo
##  3 N103US   1999 Fixed win AIRBUS INDUS A320-       2   182    NA Turbo
##  4 N104UW   1999 Fixed win AIRBUS INDUS A320-       2   182    NA Turbo
##  5 N10575   2002 Fixed win EMBRAER       EMB-1       2    55    NA Turbo
##  6 N105UW   1999 Fixed win AIRBUS INDUS A320-       2   182    NA Turbo
##  7 N107US   1999 Fixed win AIRBUS INDUS A320-       2   182    NA Turbo
##  8 N108UW   1999 Fixed win AIRBUS INDUS A320-       2   182    NA Turbo
##  9 N109UW   1999 Fixed win AIRBUS INDUS A320-       2   182    NA Turbo
## 10 N110UW   1999 Fixed win AIRBUS INDUS A320-       2   182    NA Turbo
## #  with 3,312 more rows
…
temp,dewp : Temperature and dewpoint in F

humid : Relative humidity

wind_dir,wind_speed,wind_gust : Wind direction (in degrees), speed and gust speed (in mph)

precip : Precipitation, in inches

pressure : Sea level pressure in millibars

visib : Visibility in miles

time_hour : Date and hour of the recording as a POSIXct date

## # A tibble: 26,115 x 15
##    origin  year month   day  hour  temp  dewp humid wind_dir wind_speed
##    <chr>  <dbl> <dbl> <int> <int> <dbl> <dbl> <dbl>    <dbl>      <dbl>
##  1 EWR     2013     1     1     1  39.0  26.1  59.4      270      10.4 
##  2 EWR     2013     1     1     2  39.0  27.0  61.6      250       8.06
##  3 EWR     2013     1     1     3  39.0  28.0  64.4      240      11.5 
##  4 EWR     2013     1     1     4  39.9  28.0  62.2      250      12.7 
##  5 EWR     2013     1     1     5  39.0  28.0  64.4      260      12.7 
##  6 EWR     2013     1     1     6  37.9  28.0  67.2      240      11.5 
##  7 EWR     2013     1     1     7  39.0  28.0  64.4      240      15.0 
##  8 EWR     2013     1     1     8  39.9  28.0  62.2      250      10.4 
##  9 EWR     2013     1     1     9  39.9  28.0  62.2      260      15.0 
## 10 EWR     2013     1     1    10  41    28.0  59.6      260      13.8 
## #  with 26,105 more rows, and 5 more variables: wind_gust <dbl>,
## #   precip <dbl>, pressure <dbl>, visib <dbl>, time_hour <dttm>
…
carrier : Two letter carrier abbreviation. See airlines() to get name

tailnum : Plane tail number

flight : Flight number

origin,dest : Origin and destination. See airports() for additional metadata.

air_time : Amount of time spent in the air, in minutes

distance : Distance between airports, in miles

time_hour : Scheduled date and hour of the flight as a POSIXct date. Along with origin, can be used to join flights data to weather data.

## # A tibble: 336,776 x 19
##     year month   day dep_time sched_dep_time dep_delay arr_time
##    <int> <int> <int>    <int>          <int>     <dbl>    <int>
##  1  2013     1     1      517            515         2      830
##  2  2013     1     1      533            529         4      850
##  3  2013     1     1      542            540         2      923
##  4  2013     1     1      544            545        -1     1004
##  5  2013     1     1      554            600        -6      812
##  6  2013     1     1      554            558        -4      740
##  7  2013     1     1      555            600        -5      913
##  8  2013     1     1      557            600        -3      709
##  9  2013     1     1      557            600        -3      838
## 10  2013     1     1      558            600        -2      753
## #  with 336,766 more rows, and 12 more variables: sched_arr_time <int>,
## #   arr_delay <dbl>, carrier <chr>, flight <int>, tailnum <chr>,
## #   origin <chr>, dest <chr>, air_time <dbl>, distance <dbl>, hour <dbl>,
## #   minute <dbl>, time_hour <dttm>
…
Sumber: R for Data Science by Hadley Wickham and Garrett Grolemund

Primary key adalah field atau variabel yang memiliki nilai unik pada setiap observasi pada tabel itu sendiri, sedangkan Foreign key adalah variabel yang memiliki nilai unik yang dapat mengidentifikasi setiap observasi pada tabel yang lain. Contoh Primary key adalah field tailnum pada tabel planes, sedangkan contoh foreign key adalah field tailnum pada tabel flights. Dari gambar di atas bisa dilihat bahwa setiap tabel dihubungkan dengan key yang ada pada setiap tabel. Tabel airlines mempunyai relasi atau hubungan dengan tabel flights yang dihubungkan dengan variabel carrier, selanjutnya tabel planes mempunyai relasi atau hubungan dengan tabel flights yang dihubungkan dengan variabel tailnum.

Mutating Joins

Mutating joins adalah salah satu fungsi yang digunakan untuk menggabungkan dua tabel. Fungsi mutating join ini terbagi menjadi inner join, dan outer join.

Inner Join

Fungsi inner join menggabungkan tabel dengan nilai key yang sesuai sehingga nilai key yang tidak sesuai akan dibuang.

inner_join(flights, planes, by = "tailnum")

## # A tibble: 284,170 x 27
##    year.x month   day dep_time sched_dep_time dep_delay arr_time
##     <int> <int> <int>    <int>          <int>     <dbl>    <int>
##  1   2013     1     1      517            515         2      830
##  2   2013     1     1      533            529         4      850
##  3   2013     1     1      542            540         2      923
##  4   2013     1     1      544            545        -1     1004
##  5   2013     1     1      554            600        -6      812
##  6   2013     1     1      554            558        -4      740
##  7   2013     1     1      555            600        -5      913
##  8   2013     1     1      557            600        -3      709
##  9   2013     1     1      557            600        -3      838
## 10   2013     1     1      558            600        -2      849
## #  with 284,160 more rows, and 20 more variables: sched_arr_time <int>,
## #   arr_delay <dbl>, carrier <chr>, flight <int>, tailnum <chr>,
## #   origin <chr>, dest <chr>, air_time <dbl>, distance <dbl>, hour <dbl>,
## #   minute <dbl>, time_hour <dttm>, year.y <int>, type <chr>,
## #   manufacturer <chr>, model <chr>, engines <int>, seats <int>,
## #   speed <int>, engine <chr>
…
